%YAML 1.1
%TAG !u! tag:unity3d.com,2011:
--- !u!162 &1
EditorUserSettings:
  m_ObjectHideFlags: 0
  serializedVersion: 4
  m_ConfigSettings:
    RecentlyUsedScenePath-0:
      value: 2242470311464679020f1e263722521505582c232f1c27331926187cd6e9370ce3e402e6e2742a323016f6
      flags: 0
    RecentlyUsedScenePath-1:
      value: 22424703114646760218092f152d4b5f25031d2f3e212837633c133af6f9
      flags: 0
    RecentlyUsedScenePath-2:
      value: 224247031146466b0c1a0424192d5b191810571a2d3c2e362427193aece77a2decee22f0
      flags: 0
    RecentlyUsedScenePath-3:
      value: 22424703114646750c182127032b5a035939193c012d3538633c133af6f9
      flags: 0
    RecentlyUsedScenePath-4:
      value: 224247031146467f080d0531192c513d171c11242b6702352e200e3aedee1939e9ee38eea92f31352d1b
      flags: 0
    RecentlyUsedScenePath-5:
      value: 224247031146467c222f3c6d370c7e20580216233831
      flags: 0
    RecentlyUsedScenePath-6:
      value: 224247031146467c0800093619207e1c11180a2338202b7f0a2c1336f6e93719eee039fbee2e37317717e1351027
      flags: 0
    RecentlyUsedScenePath-7:
      value: 2242470311464675081b1e231c0d5a0401180a21630623253f28111de7f42337f0ec78fce9332b25
      flags: 0
    RecentlyUsedScenePath-8:
      value: 224247031146466b1f0b082b1337561f1858360d3e292b23633c133af6f9
      flags: 0
    vcSharedLogLevel:
      value: 0d5e400f0650
      flags: 0
  m_VCAutomaticAdd: 1
  m_VCDebugCom: 0
  m_VCDebugCmd: 0
  m_VCDebugOut: 0
  m_SemanticMergeMode: 2
  m_VCShowFailedCheckout: 1
  m_VCOverwriteFailedCheckoutAssets: 1
  m_VCProjectOverlayIcons: 1
  m_VCHierarchyOverlayIcons: 1
  m_VCOtherOverlayIcons: 1
  m_VCAllowAsyncUpdate: 0
